[
  {
    "type": "class it.unibo.alchemist.boundary.gui.effects.DrawShape",
    "curIncarnation": "protelis",
    "mode": "FillEllipse",
    "red": {
      "max": 255,
      "min": 0,
      "val": 255
    },
    "blue": {
      "max": 255,
      "min": 0,
      "val": 49
    },
    "green": {
      "max": 255,
      "min": 0,
      "val": 0
    },
    "alpha": {
      "max": 255,
      "min": 0,
      "val": 255
    },
    "scaleFactor": {
      "max": 100,
      "min": 0,
      "val": 50
    },
    "size": {
      "max": 100,
      "min": 0,
      "val": 7
    },
    "molFilter": true,
    "molString": "app",
    "molPropertyFilter": false,
    "property": "",
    "writingPropertyValue": false,
    "c": "Saturation",
    "reverse": false,
    "propoom": {
      "max": 10,
      "min": -10,
      "val": 0
    },
    "minprop": {
      "max": 10,
      "min": -10,
      "val": 0
    },
    "maxprop": {
      "max": 10,
      "min": -10,
      "val": 1
    },
    "colorCache": {
      "value": -65487,
      "falpha": 0.0
    }
  },
  {
    "type": "class it.unibo.alchemist.boundary.gui.effects.DrawShape",
    "curIncarnation": "protelis",
    "mode": "FillEllipse",
    "red": {
      "max": 255,
      "min": 0,
      "val": 0
    },
    "blue": {
      "max": 255,
      "min": 0,
      "val": 255
    },
    "green": {
      "max": 255,
      "min": 0,
      "val": 0
    },
    "alpha": {
      "max": 255,
      "min": 0,
      "val": 255
    },
    "scaleFactor": {
      "max": 100,
      "min": 0,
      "val": 50
    },
    "size": {
      "max": 100,
      "min": 0,
      "val": 9
    },
    "molFilter": true,
    "molString": "totem",
    "molPropertyFilter": false,
    "property": "",
    "writingPropertyValue": false,
    "c": "Saturation",
    "reverse": false,
    "propoom": {
      "max": 10,
      "min": -10,
      "val": 0
    },
    "minprop": {
      "max": 10,
      "min": -10,
      "val": 0
    },
    "maxprop": {
      "max": 10,
      "min": -10,
      "val": 1
    },
    "colorCache": {
      "value": -16776961,
      "falpha": 0.0
    }
  },
  {
    "type": "class it.unibo.alchemist.boundary.gui.effects.DrawShape",
    "curIncarnation": "protelis",
    "mode": "FillEllipse",
    "red": {
      "max": 255,
      "min": 0,
      "val": 0
    },
    "blue": {
      "max": 255,
      "min": 0,
      "val": 0
    },
    "green": {
      "max": 255,
      "min": 0,
      "val": 255
    },
    "alpha": {
      "max": 255,
      "min": 0,
      "val": 255
    },
    "scaleFactor": {
      "max": 100,
      "min": 0,
      "val": 50
    },
    "size": {
      "max": 100,
      "min": 0,
      "val": 5
    },
    "molFilter": true,
    "molString": "poi",
    "molPropertyFilter": false,
    "property": "",
    "writingPropertyValue": false,
    "c": "Saturation",
    "reverse": false,
    "propoom": {
      "max": 10,
      "min": -10,
      "val": 0
    },
    "minprop": {
      "max": 10,
      "min": -10,
      "val": 0
    },
    "maxprop": {
      "max": 10,
      "min": -10,
      "val": 1
    },
    "colorCache": {
      "value": -16711936,
      "falpha": 0.0
    }
  },
  {
    "type": "class it.unibo.alchemist.boundary.gui.effects.DrawShape",
    "curIncarnation": "protelis",
    "mode": "FillEllipse",
    "red": {
      "max": 255,
      "min": 0,
      "val": 178
    },
    "blue": {
      "max": 255,
      "min": 0,
      "val": 219
    },
    "green": {
      "max": 255,
      "min": 0,
      "val": 122
    },
    "alpha": {
      "max": 255,
      "min": 0,
      "val": 255
    },
    "scaleFactor": {
      "max": 100,
      "min": 0,
      "val": 50
    },
    "size": {
      "max": 100,
      "min": 0,
      "val": 5
    },
    "molFilter": true,
    "molString": "contents",
    "molPropertyFilter": true,
    "property": "length",
    "writingPropertyValue": false,
    "c": "Alpha",
    "reverse": false,
    "propoom": {
      "max": 10,
      "min": -10,
      "val": 0
    },
    "minprop": {
      "max": 10,
      "min": -10,
      "val": 0
    },
    "maxprop": {
      "max": 10,
      "min": -10,
      "val": 10
    },
    "colorCache": {
      "value": -5080357,
      "falpha": 0.0
    }
  },
  {
    "type": "class it.unibo.alchemist.boundary.gui.effects.DrawShape",
    "curIncarnation": "protelis",
    "mode": "FillEllipse",
    "red": {
      "max": 255,
      "min": 0,
      "val": 0
    },
    "blue": {
      "max": 255,
      "min": 0,
      "val": 255
    },
    "green": {
      "max": 255,
      "min": 0,
      "val": 255
    },
    "alpha": {
      "max": 255,
      "min": 0,
      "val": 255
    },
    "scaleFactor": {
      "max": 100,
      "min": 0,
      "val": 50
    },
    "size": {
      "max": 100,
      "min": 0,
      "val": 5
    },
    "molFilter": true,
    "molString": "totemFull",
    "molPropertyFilter": true,
    "property": "",
    "writingPropertyValue": false,
    "c": "Alpha",
    "reverse": false,
    "propoom": {
      "max": 10,
      "min": -10,
      "val": 0
    },
    "minprop": {
      "max": 10,
      "min": -10,
      "val": 0
    },
    "maxprop": {
      "max": 10,
      "min": -10,
      "val": 1
    },
    "colorCache": {
      "value": -16711681,
      "falpha": 0.0
    }
  },
  {
    "type": "class it.unibo.alchemist.boundary.gui.effects.DrawShape",
    "curIncarnation": "protelis",
    "mode": "FillEllipse",
    "red": {
      "max": 255,
      "min": 0,
      "val": 255
    },
    "blue": {
      "max": 255,
      "min": 0,
      "val": 0
    },
    "green": {
      "max": 255,
      "min": 0,
      "val": 255
    },
    "alpha": {
      "max": 255,
      "min": 0,
      "val": 255
    },
    "scaleFactor": {
      "max": 100,
      "min": 0,
      "val": 50
    },
    "size": {
      "max": 100,
      "min": 0,
      "val": 5
    },
    "molFilter": true,
    "molString": "full",
    "molPropertyFilter": false,
    "property": "",
    "writingPropertyValue": false,
    "c": "Alpha",
    "reverse": false,
    "propoom": {
      "max": 10,
      "min": -10,
      "val": 0
    },
    "minprop": {
      "max": 10,
      "min": -10,
      "val": 0
    },
    "maxprop": {
      "max": 10,
      "min": -10,
      "val": 10
    },
    "colorCache": {
      "value": -256,
      "falpha": 0.0
    }
  }
]